<svg viewBox="0 0 330 200" xmlns="http://www.w3.org/2000/svg">
    <g>
        <g>
            <g>
                <g>
                    <g>
                        <line x1="49.98400115966797" y1="178.57999897003174" x2="44.98400115966797"
                              y2="178.57999897003174" style="visibility: inherit;" fill="rgb(0, 0, 0)"
                              stroke="rgb(204, 204, 204)" stroke-width="1px"></line>
                        <line x1="49.98400115966797" y1="163.69833238919577" x2="44.98400115966797"
                              y2="163.69833238919577" style="visibility: inherit;" fill="rgb(0, 0, 0)"
                              stroke="rgb(204, 204, 204)" stroke-width="1px"></line>
                        <line x1="49.98400115966797" y1="148.81666580835977" x2="44.98400115966797"
                              y2="148.81666580835977" style="visibility: inherit;" fill="rgb(0, 0, 0)"
                              stroke="rgb(204, 204, 204)" stroke-width="1px"></line>
                        <line x1="49.98400115966797" y1="133.9349992275238" x2="44.98400115966797"
                              y2="133.9349992275238" style="visibility: inherit;" fill="rgb(0, 0, 0)"
                              stroke="rgb(204, 204, 204)" stroke-width="1px"></line>
                        <line x1="49.98400115966797" y1="119.05333264668783" x2="44.98400115966797"
                              y2="119.05333264668783" style="visibility: inherit;" fill="rgb(0, 0, 0)"
                              stroke="rgb(204, 204, 204)" stroke-width="1px"></line>
                        <line x1="49.98400115966797" y1="104.17166606585185" x2="44.98400115966797"
                              y2="104.17166606585185" style="visibility: inherit;" fill="rgb(0, 0, 0)"
                              stroke="rgb(204, 204, 204)" stroke-width="1px"></line>
                        <line x1="49.98400115966797" y1="89.28999948501588" x2="44.98400115966797"
                              y2="89.28999948501588" style="visibility: inherit;" fill="rgb(0, 0, 0)"
                              stroke="rgb(204, 204, 204)" stroke-width="1px"></line>
                        <line x1="49.98400115966797" y1="74.4083329041799" x2="44.98400115966797" y2="74.4083329041799"
                              style="visibility: inherit;" fill="rgb(0, 0, 0)" stroke="rgb(204, 204, 204)"
                              stroke-width="1px"></line>
                        <line x1="49.98400115966797" y1="59.526666323343946" x2="44.98400115966797"
                              y2="59.526666323343946" style="visibility: inherit;" fill="rgb(0, 0, 0)"
                              stroke="rgb(204, 204, 204)" stroke-width="1px"></line>
                        <line x1="49.98400115966797" y1="44.64499974250796" x2="44.98400115966797"
                              y2="44.64499974250796" style="visibility: inherit;" fill="rgb(0, 0, 0)"
                              stroke="rgb(204, 204, 204)" stroke-width="1px"></line>
                        <line x1="49.98400115966797" y1="29.763333161671966" x2="44.98400115966797"
                              y2="29.763333161671966" style="visibility: inherit;" fill="rgb(0, 0, 0)"
                              stroke="rgb(204, 204, 204)" stroke-width="1px"></line>
                        <line x1="49.98400115966797" y1="14.881666580835997" x2="44.98400115966797"
                              y2="14.881666580835997" style="visibility: inherit;" fill="rgb(0, 0, 0)"
                              stroke="rgb(204, 204, 204)" stroke-width="1px"></line>
                        <line x1="49.98400115966797" y1="0" x2="44.98400115966797" y2="0" style="visibility: inherit;"
                              fill="rgb(0, 0, 0)" stroke="rgb(204, 204, 204)" stroke-width="1px"></line>
                    </g>
                    <g transform="translate(39.98400115966797, 0)">
                        <text style="text-anchor: end; visibility: hidden; font-family: &quot;Helvetica Neue&quot;, sans-serif; font-size: 12px; font-weight: 200;"
                              x="0" y="178.57999897003174" dx="0em" dy="0.3em" fill="rgb(50, 49, 63)" stroke="none"
                              stroke-width="1px">-0.1
                        </text>
                        <text style="text-anchor: end; visibility: inherit; font-family: &quot;Helvetica Neue&quot;, sans-serif; font-size: 12px; font-weight: 200;"
                              x="0" y="163.69833238919577" dx="0em" dy="0.3em" fill="rgb(50, 49, 63)" stroke="none"
                              stroke-width="1px">0
                        </text>
                        <text style="text-anchor: end; visibility: hidden; font-family: &quot;Helvetica Neue&quot;, sans-serif; font-size: 12px; font-weight: 200;"
                              x="0" y="148.81666580835977" dx="0em" dy="0.3em" fill="rgb(50, 49, 63)" stroke="none"
                              stroke-width="1px">0.1
                        </text>
                        <text style="text-anchor: end; visibility: inherit; font-family: &quot;Helvetica Neue&quot;, sans-serif; font-size: 12px; font-weight: 200;"
                              x="0" y="133.9349992275238" dx="0em" dy="0.3em" fill="rgb(50, 49, 63)" stroke="none"
                              stroke-width="1px">0.2
                        </text>
                        <text style="text-anchor: end; visibility: hidden; font-family: &quot;Helvetica Neue&quot;, sans-serif; font-size: 12px; font-weight: 200;"
                              x="0" y="119.05333264668783" dx="0em" dy="0.3em" fill="rgb(50, 49, 63)" stroke="none"
                              stroke-width="1px">0.3
                        </text>
                        <text style="text-anchor: end; visibility: inherit; font-family: &quot;Helvetica Neue&quot;, sans-serif; font-size: 12px; font-weight: 200;"
                              x="0" y="104.17166606585185" dx="0em" dy="0.3em" fill="rgb(50, 49, 63)" stroke="none"
                              stroke-width="1px">0.4
                        </text>
                        <text style="text-anchor: end; visibility: hidden; font-family: &quot;Helvetica Neue&quot;, sans-serif; font-size: 12px; font-weight: 200;"
                              x="0" y="89.28999948501588" dx="0em" dy="0.3em" fill="rgb(50, 49, 63)" stroke="none"
                              stroke-width="1px">0.5
                        </text>
                        <text style="text-anchor: end; visibility: inherit; font-family: &quot;Helvetica Neue&quot;, sans-serif; font-size: 12px; font-weight: 200;"
                              x="0" y="74.4083329041799" dx="0em" dy="0.3em" fill="rgb(50, 49, 63)" stroke="none"
                              stroke-width="1px">0.6
                        </text>
                        <text style="text-anchor: end; visibility: hidden; font-family: &quot;Helvetica Neue&quot;, sans-serif; font-size: 12px; font-weight: 200;"
                              x="0" y="59.526666323343946" dx="0em" dy="0.3em" fill="rgb(50, 49, 63)" stroke="none"
                              stroke-width="1px">0.7
                        </text>
                        <text style="text-anchor: end; visibility: inherit; font-family: &quot;Helvetica Neue&quot;, sans-serif; font-size: 12px; font-weight: 200;"
                              x="0" y="44.64499974250796" dx="0em" dy="0.3em" fill="rgb(50, 49, 63)" stroke="none"
                              stroke-width="1px">0.8
                        </text>
                        <text style="text-anchor: end; visibility: hidden; font-family: &quot;Helvetica Neue&quot;, sans-serif; font-size: 12px; font-weight: 200;"
                              x="0" y="29.763333161671966" dx="0em" dy="0.3em" fill="rgb(50, 49, 63)" stroke="none"
                              stroke-width="1px">0.9
                        </text>
                        <text style="text-anchor: end; visibility: inherit; font-family: &quot;Helvetica Neue&quot;, sans-serif; font-size: 12px; font-weight: 200;"
                              x="0" y="14.881666580835997" dx="0em" dy="0.3em" fill="rgb(50, 49, 63)" stroke="none"
                              stroke-width="1px">1
                        </text>
                        <text style="text-anchor: end; visibility: hidden; font-family: &quot;Helvetica Neue&quot;, sans-serif; font-size: 12px; font-weight: 200;"
                              x="0" y="0" dx="0em" dy="0.3em" fill="rgb(50, 49, 63)" stroke="none" stroke-width="1px">
                            1.1
                        </text>
                    </g>
                    <line x1="49.98400115966797" y1="0" x2="49.98400115966797" y2="178.57999897003174"
                          fill="rgb(0, 0, 0)" stroke="rgb(204, 204, 204)" stroke-width="1px"></line>
                </g>
            </g>
            <g transform="translate(49, 0)" clip-path="url(#clip_0)">
                <clipPath id="clip_0">
                    <rect width="280" height="178"></rect>
                </clipPath>
                <g>
                    <g>
                        <g>
                            <line x1="0" y1="0" x2="0" y2="178.57999897003174" fill="rgb(0, 0, 0)"
                                  stroke="rgb(60, 60, 60)" stroke-width="1px" opacity="0.25"></line>
                            <line x1="31.112888760036892" y1="0" x2="31.112888760036892" y2="178.57999897003174"
                                  fill="rgb(0, 0, 0)" stroke="rgb(60, 60, 60)" stroke-width="1px" opacity="0.25"></line>
                            <line x1="62.225777520073784" y1="0" x2="62.225777520073784" y2="178.57999897003174"
                                  fill="rgb(0, 0, 0)" stroke="rgb(60, 60, 60)" stroke-width="1px" opacity="0.25"></line>
                            <line x1="93.33866628011067" y1="0" x2="93.33866628011067" y2="178.57999897003174"
                                  fill="rgb(0, 0, 0)" stroke="rgb(60, 60, 60)" stroke-width="1px" opacity="0.25"></line>
                            <line x1="124.45155504014757" y1="0" x2="124.45155504014757" y2="178.57999897003174"
                                  fill="rgb(0, 0, 0)" stroke="rgb(60, 60, 60)" stroke-width="1px" opacity="0.25"></line>
                            <line x1="155.56444380018448" y1="0" x2="155.56444380018448" y2="178.57999897003174"
                                  fill="rgb(0, 0, 0)" stroke="rgb(60, 60, 60)" stroke-width="1px" opacity="0.25"></line>
                            <line x1="186.67733256022134" y1="0" x2="186.67733256022134" y2="178.57999897003174"
                                  fill="rgb(0, 0, 0)" stroke="rgb(60, 60, 60)" stroke-width="1px" opacity="0.25"></line>
                            <line x1="217.79022132025824" y1="0" x2="217.79022132025824" y2="178.57999897003174"
                                  fill="rgb(0, 0, 0)" stroke="rgb(60, 60, 60)" stroke-width="1px" opacity="0.25"></line>
                            <line x1="248.90311008029514" y1="0" x2="248.90311008029514" y2="178.57999897003174"
                                  fill="rgb(0, 0, 0)" stroke="rgb(60, 60, 60)" stroke-width="1px" opacity="0.25"></line>
                            <line x1="280.01599884033203" y1="0" x2="280.01599884033203" y2="178.57999897003174"
                                  fill="rgb(0, 0, 0)" stroke="rgb(60, 60, 60)" stroke-width="1px" opacity="0.25"></line>
                        </g>
                        <g>
                            <line x1="0" y1="178.57999897003174" x2="280.01599884033203" y2="178.57999897003174"
                                  fill="rgb(0, 0, 0)" stroke="rgb(60, 60, 60)" stroke-width="1px" opacity="0.25"></line>
                            <line x1="0" y1="163.69833238919577" x2="280.01599884033203" y2="163.69833238919577"
                                  fill="rgb(0, 0, 0)" stroke="rgb(60, 60, 60)" stroke-width="1px" opacity="0.25"></line>
                            <line x1="0" y1="148.81666580835977" x2="280.01599884033203" y2="148.81666580835977"
                                  fill="rgb(0, 0, 0)" stroke="rgb(60, 60, 60)" stroke-width="1px" opacity="0.25"></line>
                            <line x1="0" y1="133.9349992275238" x2="280.01599884033203" y2="133.9349992275238"
                                  fill="rgb(0, 0, 0)" stroke="rgb(60, 60, 60)" stroke-width="1px" opacity="0.25"></line>
                            <line x1="0" y1="119.05333264668783" x2="280.01599884033203" y2="119.05333264668783"
                                  fill="rgb(0, 0, 0)" stroke="rgb(60, 60, 60)" stroke-width="1px" opacity="0.25"></line>
                            <line x1="0" y1="104.17166606585185" x2="280.01599884033203" y2="104.17166606585185"
                                  fill="rgb(0, 0, 0)" stroke="rgb(60, 60, 60)" stroke-width="1px" opacity="0.25"></line>
                            <line x1="0" y1="89.28999948501588" x2="280.01599884033203" y2="89.28999948501588"
                                  fill="rgb(0, 0, 0)" stroke="rgb(60, 60, 60)" stroke-width="1px" opacity="0.25"></line>
                            <line x1="0" y1="74.4083329041799" x2="280.01599884033203" y2="74.4083329041799"
                                  fill="rgb(0, 0, 0)" stroke="rgb(60, 60, 60)" stroke-width="1px" opacity="0.25"></line>
                            <line x1="0" y1="59.526666323343946" x2="280.01599884033203" y2="59.526666323343946"
                                  fill="rgb(0, 0, 0)" stroke="rgb(60, 60, 60)" stroke-width="1px" opacity="0.25"></line>
                            <line x1="0" y1="44.64499974250796" x2="280.01599884033203" y2="44.64499974250796"
                                  fill="rgb(0, 0, 0)" stroke="rgb(60, 60, 60)" stroke-width="1px" opacity="0.25"></line>
                            <line x1="0" y1="29.763333161671966" x2="280.01599884033203" y2="29.763333161671966"
                                  fill="rgb(0, 0, 0)" stroke="rgb(60, 60, 60)" stroke-width="1px" opacity="0.25"></line>
                            <line x1="0" y1="14.881666580835997" x2="280.01599884033203" y2="14.881666580835997"
                                  fill="rgb(0, 0, 0)" stroke="rgb(60, 60, 60)" stroke-width="1px" opacity="0.25"></line>
                            <line x1="0" y1="0" x2="280.01599884033203" y2="0" fill="rgb(0, 0, 0)"
                                  stroke="rgb(60, 60, 60)" stroke-width="1px" opacity="0.25"></line>
                        </g>
                    </g>
                </g>
                <g>
                    <g>
                        <line x1="0" y1="163.69833238919577" x2="280.01599884033203" y2="163.69833238919577"
                              fill="rgb(0, 0, 0)" stroke="rgb(153, 153, 153)" stroke-width="1.5px"></line>
                    </g>
                </g>
                <g>
                    <g>
                        <line x1="31.112888760036892" y1="0" x2="31.112888760036892" y2="178.57999897003174"
                              fill="rgb(0, 0, 0)" stroke="rgb(153, 153, 153)" stroke-width="1.5px"></line>
                    </g>
                </g>
                <g>
                    <g>
                        <g>
                            <g>
                                <g>
                                    <path style="fill: none;" stroke="rgb(187, 187, 187)" stroke-width="2px"
                                          d="M31.112888760036892,108.92553227196139L37.33546651204427,90.62487220410259L43.55804426405165,79.57417151107879L49.78062201605903,71.21603876055933L56.00319976806641,65.3093417404314L62.225777520073784,61.92912837019564L68.44835527208116,58.445464216263815L74.67093302408854,55.85815488137028L80.89351077609591,53.63788396134491L87.1160885281033,52.18149773064192L93.33866628011067,51.03673366562418L99.56124403211805,50.21444577173463L105.78382178412544,49.58424721066345L112.00639953613282,49.48245675672479L118.22897728814019,48.732142499824675L124.45155504014757,48.00651665827195L130.67413279215495,47.020004594992514L136.89671054416232,46.56601091642628L143.11928829616969,46.01804205896394L149.34186604817708,45.68928211551821L155.56444380018448,45.21644242988947L161.78702155219182,45.07053975421957L168.0095993041992,44.98299937788076L174.2321770562066,44.654888921812926L180.45475480821398,44.45802364319104L186.67733256022134,44.20210836765861L192.89991031222874,44.18635585426955L199.1224880642361,44.17690435655459L205.34506581624348,44.17123346164021L211.56764356825087,44.16783092602884L217.79022132025824,44.16578940514347L224.01279907226564,44.16456449278553L230.235376824273,44.163829545433174L236.45795457628037,44.1633885770442L242.68053232828777,44.163123996018896L248.90311008029514,44.162965247406675"
                                          fill="none"></path>
                                </g>
                                <g>
                                    <path style="fill: none;" stroke="rgb(0, 153, 136)" stroke-width="2px"
                                          d="M31.112888760036892,121.82540807237814L37.33546651204427,112.25080559664133L43.55804426405165,102.99256715476179L49.78062201605903,95.35445073233498L56.00319976806641,84.75083788762358L62.225777520073784,76.98330180630015L68.44835527208116,71.00035352798903L74.67093302408854,65.79826995495267L80.89351077609591,60.37536552450598L87.1160885281033,56.80452311608397L93.33866628011067,52.80158349660037L99.56124403211805,50.46762032849858L105.78382178412544,47.901782328751835L112.00639953613282,44.55386256246689L118.22897728814019,41.612599761485086L124.45155504014757,38.8563372873252L130.67413279215495,37.144709066994125L136.89671054416232,35.30080018860929L143.11928829616969,33.26076624448325L149.34186604817708,31.21976471491888L155.56444380018448,30.05357142299789L161.78702155219182,28.24502634630224L168.0095993041992,26.459595324865774L174.2321770562066,24.863108874565228L180.45475480821398,24.663896268781173L186.67733256022134,24.427651696102544L192.89991031222874,23.81902894609314L199.1224880642361,24.037449012195594L205.34506581624348,23.876704378970118L211.56764356825087,23.838616236134612L217.79022132025824,23.115449583220453L224.01279907226564,23.265146206433627L230.235376824273,23.354964172736658L236.45795457628037,23.175417049848903L242.68053232828777,23.3011266766579L248.90311008029514,23.493269625149424"
                                          fill="none"></path>
                                </g>
                            </g>
                        </g>
                    </g>
                    <g opacity="0.2">
                        <g>
                            <g>
                                <g>
                                    <path style="fill: none;" stroke="rgb(187, 187, 187)" stroke-width="2px"
                                          d="M31.112888760036892,108.92553227196139L37.33546651204427,79.64447616338732L43.55804426405165,68.96549884577597L49.78062201605903,61.386874645948424L56.00319976806641,57.597558110952406L62.225777520073784,57.25307640234634L68.44835527208116,53.463768737514826L74.67093302408854,52.08583303292593L80.89351077609591,50.36341561973097L87.1160885281033,50.01893391112489L93.33866628011067,49.3299704939127L99.56124403211805,48.985488785306615L105.78382178412544,48.64100707670053L112.00639953613282,49.3299704939127L118.22897728814019,47.607553080717736L124.45155504014757,46.91858966350557L130.67413279215495,45.54065395891669L136.89671054416232,45.885135667522775L143.11928829616969,45.19617225031061L149.34186604817708,45.19617225031061L155.56444380018448,44.50720883309842L161.78702155219182,44.8516905417045L168.0095993041992,44.8516905417045L174.2321770562066,44.162727124492335L180.45475480821398,44.162727124492335L186.67733256022134,43.81823654572173L192.89991031222874,44.162727124492335L199.1224880642361,44.162727124492335L205.34506581624348,44.162727124492335L211.56764356825087,44.162727124492335L217.79022132025824,44.162727124492335L224.01279907226564,44.162727124492335L230.235376824273,44.162727124492335L236.45795457628037,44.162727124492335L242.68053232828777,44.162727124492335L248.90311008029514,44.162727124492335"
                                          fill="none"></path>
                                </g>
                                <g>
                                    <path style="fill: none;" stroke="rgb(0, 153, 136)" stroke-width="2px"
                                          d="M31.112888760036892,121.82540807237814L37.33546651204427,106.50604411119926L43.55804426405165,94.10465825055745L49.78062201605903,86.37202581956107L56.00319976806641,70.90676095756835L62.225777520073784,66.23800309284066L68.44835527208116,62.44464176283164L74.67093302408854,58.21358216546331L80.89351077609591,52.37763483455369L87.1160885281033,51.50223829983497L93.33866628011067,46.833480435107276L99.56124403211805,46.9793769008389L105.78382178412544,44.06140323538409L112.00639953613282,39.53854183638802L118.22897728814019,37.20416290402417L124.45155504014757,34.7238875059287L130.67413279215495,34.577991040197105L136.89671054416232,32.53540503929648L143.11928829616969,30.20102610693263L149.34186604817708,28.158448976196496L155.56444380018448,28.30434544192812L161.78702155219182,25.532268242204907L168.0095993041992,23.78148404293202L174.2321770562066,22.4683981110185L180.45475480821398,24.365078776022983L186.67733256022134,24.073285844559763L192.89991031222874,22.90609637837784L199.1224880642361,24.365078776022983L205.34506581624348,23.635587577200425L211.56764356825087,23.78148404293202L217.79022132025824,22.030699843659164L224.01279907226564,23.4896911114688L230.235376824273,23.4896911114688L236.45795457628037,22.90609637837784L242.68053232828777,23.4896911114688L248.90311008029514,23.78148404293202"
                                          fill="none"></path>
                                </g>
                            </g>
                        </g>
                    </g>
                </g>
            </g>
            <g transform="translate(49, 178)" clip-path="url(#clip_1)">
                <clipPath id="clip_1">
                    <rect width="280" height="21"></rect>
                </clipPath>
                <g>
                    <g>
                        <line x1="0" y1="0" x2="0" y2="5" style="visibility: inherit;" fill="rgb(0, 0, 0)"
                              stroke="rgb(204, 204, 204)" stroke-width="1px"></line>
                        <line x1="31.112888760036892" y1="0" x2="31.112888760036892" y2="5" style="visibility: inherit;"
                              fill="rgb(0, 0, 0)" stroke="rgb(204, 204, 204)" stroke-width="1px"></line>
                        <line x1="62.225777520073784" y1="0" x2="62.225777520073784" y2="5" style="visibility: inherit;"
                              fill="rgb(0, 0, 0)" stroke="rgb(204, 204, 204)" stroke-width="1px"></line>
                        <line x1="93.33866628011067" y1="0" x2="93.33866628011067" y2="5" style="visibility: inherit;"
                              fill="rgb(0, 0, 0)" stroke="rgb(204, 204, 204)" stroke-width="1px"></line>
                        <line x1="124.45155504014757" y1="0" x2="124.45155504014757" y2="5" style="visibility: inherit;"
                              fill="rgb(0, 0, 0)" stroke="rgb(204, 204, 204)" stroke-width="1px"></line>
                        <line x1="155.56444380018448" y1="0" x2="155.56444380018448" y2="5" style="visibility: inherit;"
                              fill="rgb(0, 0, 0)" stroke="rgb(204, 204, 204)" stroke-width="1px"></line>
                        <line x1="186.67733256022134" y1="0" x2="186.67733256022134" y2="5" style="visibility: inherit;"
                              fill="rgb(0, 0, 0)" stroke="rgb(204, 204, 204)" stroke-width="1px"></line>
                        <line x1="217.79022132025824" y1="0" x2="217.79022132025824" y2="5" style="visibility: inherit;"
                              fill="rgb(0, 0, 0)" stroke="rgb(204, 204, 204)" stroke-width="1px"></line>
                        <line x1="248.90311008029514" y1="0" x2="248.90311008029514" y2="5" style="visibility: inherit;"
                              fill="rgb(0, 0, 0)" stroke="rgb(204, 204, 204)" stroke-width="1px"></line>
                        <line x1="280.01599884033203" y1="0" x2="280.01599884033203" y2="5" style="visibility: inherit;"
                              fill="rgb(0, 0, 0)" stroke="rgb(204, 204, 204)" stroke-width="1px"></line>
                    </g>
                    <g transform="translate(0, 8)">
                        <text style="text-anchor: middle; visibility: hidden; font-family: &quot;Helvetica Neue&quot;, sans-serif; font-size: 12px; font-weight: 200;"
                              x="0" y="0" dx="0em" dy="0.95em" fill="rgb(50, 49, 63)" stroke="none" stroke-width="1px">
                            -5
                        </text>
                        <text style="text-anchor: middle; visibility: inherit; font-family: &quot;Helvetica Neue&quot;, sans-serif; font-size: 12px; font-weight: 200;"
                              x="31.112888760036892" y="0" dx="0em" dy="0.95em" fill="rgb(50, 49, 63)" stroke="none"
                              stroke-width="1px">0
                        </text>
                        <text style="text-anchor: middle; visibility: inherit; font-family: &quot;Helvetica Neue&quot;, sans-serif; font-size: 12px; font-weight: 200;"
                              x="62.225777520073784" y="0" dx="0em" dy="0.95em" fill="rgb(50, 49, 63)" stroke="none"
                              stroke-width="1px">5
                        </text>
                        <text style="text-anchor: middle; visibility: inherit; font-family: &quot;Helvetica Neue&quot;, sans-serif; font-size: 12px; font-weight: 200;"
                              x="93.33866628011067" y="0" dx="0em" dy="0.95em" fill="rgb(50, 49, 63)" stroke="none"
                              stroke-width="1px">10
                        </text>
                        <text style="text-anchor: middle; visibility: inherit; font-family: &quot;Helvetica Neue&quot;, sans-serif; font-size: 12px; font-weight: 200;"
                              x="124.45155504014757" y="0" dx="0em" dy="0.95em" fill="rgb(50, 49, 63)" stroke="none"
                              stroke-width="1px">15
                        </text>
                        <text style="text-anchor: middle; visibility: inherit; font-family: &quot;Helvetica Neue&quot;, sans-serif; font-size: 12px; font-weight: 200;"
                              x="155.56444380018448" y="0" dx="0em" dy="0.95em" fill="rgb(50, 49, 63)" stroke="none"
                              stroke-width="1px">20
                        </text>
                        <text style="text-anchor: middle; visibility: inherit; font-family: &quot;Helvetica Neue&quot;, sans-serif; font-size: 12px; font-weight: 200;"
                              x="186.67733256022134" y="0" dx="0em" dy="0.95em" fill="rgb(50, 49, 63)" stroke="none"
                              stroke-width="1px">25
                        </text>
                        <text style="text-anchor: middle; visibility: inherit; font-family: &quot;Helvetica Neue&quot;, sans-serif; font-size: 12px; font-weight: 200;"
                              x="217.79022132025824" y="0" dx="0em" dy="0.95em" fill="rgb(50, 49, 63)" stroke="none"
                              stroke-width="1px">30
                        </text>
                        <text style="text-anchor: middle; visibility: inherit; font-family: &quot;Helvetica Neue&quot;, sans-serif; font-size: 12px; font-weight: 200;"
                              x="248.90311008029514" y="0" dx="0em" dy="0.95em" fill="rgb(50, 49, 63)" stroke="none"
                              stroke-width="1px">35
                        </text>
                        <text style="text-anchor: middle; visibility: hidden; font-family: &quot;Helvetica Neue&quot;, sans-serif; font-size: 12px; font-weight: 200;"
                              x="280.01599884033203" y="0" dx="0em" dy="0.95em" fill="rgb(50, 49, 63)" stroke="none"
                              stroke-width="1px">40
                        </text>
                    </g>
                    <line x1="0" y1="0" x2="280.01599884033203" y2="0" fill="rgb(0, 0, 0)" stroke="rgb(204, 204, 204)"
                          stroke-width="1px"></line>
                </g>
            </g>
        </g>
    </g>
</svg>